{
  "Server": {
    "IP": "127.0.0.1",
    "PORT": 30000,
    "PacketSize": "AUTO"
  },
  "Internal": {
    "AccWeight": 0.4
  },
  "LogicalReasoning": {
    "test": 10
  },
  "ActionSelection": {
    "wLl": 11.0,
    "wLc": 5.0,
    "wLr": 10.0,
    "wA": 5.0,
    "wD": 10.0,
    "wThrsh": 5.0
  }
}