{
	"Communication" : {
		"MyIP" : "192.168.0.10",
		"InIP" : "0.0.0.0",
		"Port" : 30000
	},
	"ScreenPrint":{
		"Comments":" ",
		"ID":true,
		"VLgtFild":true,
		"J0":true,
		"Jdelta0":true,
		"manType":true
	},
	"Internal" :{
		"AccWeight" : 0.4,
		"ActionSelectionMechanism" : 1
	},
	"LogicalReasoning" :{
		"test" :  10
	},
	"ActionSelection" :{
		"wLl": 11.0,
    	"wLc": 5.0,
    	"wLr": 10.0,
    	"wA":  5.0,
    	"wD":  10.0,
    	"wThrsh": 0.0001,
    	"forgFactor": 5
	},
	"Log":{
		"scenario": true,
		"manoeuvre": true,
		"list_log_internal": ["error","",""],
		"lrm": false,
		"asm": false
	},
	"LowLevelParameters":{
		"Type":2,
		"Parameters":{
			"longGain":1,
			"steerGain":50,
			"curvGain" :1,
			"netName":"netLateral3"
		}
	}
}
