{
	"Communication" : {
		"MyIP" : "127.0.0.1",
		"InIP" : "0.0.0.0",
		"Port" : 30000
	},
	"ScreenPrint":{
		"Comments":" ",
		"ID":true,
		"VLgtFild":true,
		"J0":true,
		"Jdelta0":true,
		"manType":true
	},
	"Internal" :{
		"AccWeight" : 0.4,
		"useLRM" : 0,
		"ActionSelectionMechanism" : 1,
		"timeWeight" : 0.25
	},
	"LogicalReasoning" :{
		"test" :  10
	},
	"ActionSelection" :{
		"wLl": 11.0,
    	"wLc": 5.0,
    	"wLr": 10.0,
    	"wA":  5.0,
    	"wD":  10.0,
    	"wThrsh": 0.0001,
    	"forgFactor": 5
	},
	"Log":{
		"scenario": true,
		"manoeuvre": true,
		"list_log_internal": ["error","",""],
		"lrm": false,
		"asm": false
	},
	"LowLevelParameters":{
		"Comb":0,
		"Long":2,
		"Lat": 4,
		"Parameters":{
			"longGain":1,
			"steerGain":50,
			"curvGain" :1,
			"accMax"   :1,
			"accMin"   :8,
			"maxSteer" :1,
			"kUSgrad"  :0.03,
			"velReset" :0.1,
			"enableReset" : true,
			"netName":" "
		}
	}
}
